<svg width="98" height="85" viewBox="0 0 98 85" fill="none" xmlns="http://www.w3.org/2000/svg">
<path opacity="0.15" d="M29.6278 69.8557C44.9468 69.8557 57.3654 69.0689 57.3654 68.0985C57.3654 67.128 44.9468 66.3413 29.6278 66.3413C14.3087 66.3413 1.89014 67.128 1.89014 68.0985C1.89014 69.0689 14.3087 69.8557 29.6278 69.8557Z" fill="url(#paint0_radial_1:129)"/>
<path d="M8.18437 76.469L7.3082 77.5593C6.65984 76.8628 5.73286 76.4305 4.83041 76.4305C3.05179 76.4305 1.65343 77.7991 1.65343 79.5493C1.65343 81.2994 3.05179 82.6821 4.83041 82.6821C5.72059 82.6821 6.63531 82.276 7.3082 81.6302L8.19839 82.6191C7.29594 83.5064 6.01323 84.0769 4.75506 84.0769C2.14934 84.0769 0.128906 82.1115 0.128906 79.5633C0.128906 77.0395 2.17388 75.1004 4.80412 75.1004C6.0623 75.1004 7.32047 75.6202 8.18437 76.469Z" fill="white"/>
<path d="M15.9103 84.0142H14.4243V81.1107L11.1071 75.1392H12.6194L15.1603 79.4621L17.6503 75.1392H19.1748L15.9085 81.0599V84.0142H15.9103Z" fill="white"/>
<path d="M26.5449 75.1374C29.2137 75.1374 31.1447 77.0013 31.1447 79.5758C31.1447 82.1363 29.2014 84.0142 26.5063 84.0142H22.8983V75.1391H26.5449V75.1374ZM24.3982 82.6701H26.5834C28.3112 82.6701 29.6325 81.3889 29.6325 79.5898C29.6325 77.7766 28.2727 76.4833 26.5186 76.4833H24.3982V82.6701Z" fill="white"/>
<path d="M36.7856 76.4815V78.8775H41.1314V80.2216H36.7856V82.6683H41.792V84.0124H35.2856V75.1374H41.6395V76.4815H36.7856Z" fill="white"/>
<path d="M60.5983 75.6711V84.0141H60.0639V75.6711H57.0656V75.1513H63.5966V75.6711H60.5983Z" fill="white"/>
<path d="M68.3489 75.6708V79.2078H72.9733V79.7399H68.3489V83.4922H73.711V84.012H67.8162V75.1492H73.5463V75.669H68.3489V75.6708Z" fill="white"/>
<path d="M85.3493 76.3292L85.0322 76.7353C84.2944 76.0509 83.2921 75.6449 82.2372 75.6449C79.989 75.6449 78.1718 77.3951 78.1718 79.5618C78.1718 81.7425 79.989 83.5049 82.2372 83.5049C83.2921 83.5049 84.2822 83.0988 85.0322 82.4268L85.3634 82.7943C84.538 83.5556 83.406 84.0247 82.2249 84.0247C79.6963 84.0247 77.6373 82.0347 77.6373 79.574C77.6373 77.1133 79.6963 75.1356 82.2249 75.1356C83.4183 75.1374 84.524 75.5942 85.3493 76.3292Z" fill="white"/>
<path d="M96.5944 84.0141V79.8294H90.584V84.0141H90.0495V75.1513H90.584V79.3097H96.5944V75.1513H97.1289V84.0141H96.5944Z" fill="white"/>
<path d="M50.4712 75.1374H48.9327L45.0074 84.0142H46.5705L47.4222 82.0103H47.4747L48.0512 80.6784H47.9812L49.6581 76.7353L49.709 76.856L49.7352 76.7913L52.8369 83.9494H52.73L52.758 84.0142H54.3596L50.4712 75.1374Z" fill="white"/>
<path d="M59.2578 29.5654H49.2958C49.2958 31.5413 48.9979 33.449 48.4512 35.2499L48.2304 35.9622L49.9442 36.6693L57.3688 39.9543C58.5867 36.7218 59.2578 33.2197 59.2578 29.5654Z" fill="#309AEA"/>
<path d="M57.2237 40.3289L57.0695 40.6772L50.6384 37.8314L48.3937 36.8076L47.9643 39.0425L45.108 53.2013L44.6805 54.9865C44.6805 54.9865 45.2412 54.6767 45.4778 54.5314C45.4778 54.5314 45.4778 54.5314 45.4778 54.5332C45.4866 54.5279 45.4971 54.5209 45.5058 54.5139C45.5163 54.5069 45.5304 54.4999 45.5391 54.4947C45.5426 54.4929 45.5479 54.4877 45.5531 54.4842C50.7979 51.1361 54.9228 46.1849 57.2237 40.3289Z" fill="#28A8EA"/>
<path d="M47.344 38.1148L47.1863 38.3861C44.9153 42.87 40.9725 46.3703 36.1782 48.0662L42.3113 53.7385L43.8639 55.1946L44.2494 53.4899L47.2879 38.4211L47.344 38.1148Z" fill="#28A8EA"/>
<path d="M41.6911 54.2284L35.3302 48.3444C33.5235 48.8922 31.61 49.188 29.6281 49.188C29.5457 49.188 29.4634 49.1827 29.381 49.181L27.2046 53.2921L25.3471 56.8012L24.4131 58.5636C26.1094 58.9189 27.8512 59.1149 29.6298 59.1289C34.2595 59.1289 38.6438 58.063 42.5515 56.1659L43.3769 55.7808L41.6911 54.2284Z" fill="#1FB6EA"/>
<path d="M28.5099 49.1568C27.1501 49.0798 25.8271 48.8645 24.5532 48.525L25.4679 51.9781L25.9743 53.968L26.9416 52.1216L28.5099 49.1568Z" fill="#1CBEEC"/>
<path d="M24.9993 55.7811L25.4268 54.9568L24.9082 52.9301C24.9099 52.9301 24.9099 52.9283 24.9117 52.9283L24.8048 52.5275L23.6763 48.2712C20.1996 47.1668 17.1418 45.1209 14.799 42.4361L13.914 43.6L11.5291 46.738L9.04431 50.0056C13.0133 53.9942 18.0408 57.0482 23.6202 58.3888L24.803 56.1556L24.9993 55.7863C25.001 55.7828 24.9993 55.7828 24.9993 55.7811Z" fill="#18C6EF"/>
<path d="M10.8697 46.3144L11.9158 44.9773L10.5 43.1344L0.76752 30.2165L0 29.1874V30.087L0.00350407 30.0957C0.0753496 36.9039 3.31015 43.9762 8.4953 49.4367L10.8697 46.3144Z" fill="#15CEF1"/>
<path d="M11.3269 19.5249L12.4975 18.6428L10.1529 17.801L3.68854 15.4716C1.97651 18.6043 0.8042 22.0767 0.290767 25.7607C0.290767 25.7607 0.0892493 27.1311 0.0787354 27.6247L1.24228 26.8213L11.0273 19.7507L11.3305 19.5319C11.3287 19.5302 11.3287 19.5284 11.3269 19.5249Z" fill="#0AE7F8"/>
<path d="M14.2842 41.82C11.5821 38.4597 9.96122 34.198 9.96122 29.5654C9.96122 26.3013 10.7673 23.2228 12.1867 20.5135C12.4583 20.0322 13.1031 19.1869 13.1031 19.1869L11.0336 20.7113L1.76208 27.4109V27.4127L0.358459 28.4295L2.10378 30.6942L11.5716 43.2603C11.5716 43.2603 11.5716 43.2603 11.5734 43.2603C11.894 43.6769 12.3812 44.2964 12.3812 44.2964L13.1172 43.3479C13.1189 43.3479 13.1207 43.3496 13.1207 43.3496L14.2842 41.82Z" fill="#0EDFF6"/>
<path d="M19.2844 6.21836L18.2207 5.78957L17.143 5.35728L17.1237 5.35028L14.3901 4.25293C10.1372 6.83441 6.58697 10.466 4.07764 14.7854L10.9222 17.2531L11.6757 17.5244C11.6775 17.5226 11.681 17.5209 11.6828 17.5191L13.6436 18.2052C13.6436 18.2052 13.8697 17.8359 14.0607 17.5944C15.0069 16.3728 16.0916 15.2667 17.2937 14.2971L18.8848 7.91601C18.8831 7.91426 18.8813 7.91251 18.8796 7.91251L19.2844 6.21836Z" fill="#07EFFA"/>
<path d="M18.2047 4.94069C18.21 4.94244 18.217 4.94594 18.224 4.94769L18.7164 5.14546C19.5137 5.46574 21.0225 6.0713 21.9004 6.42483L22.0476 6.48433C22.0651 6.49133 22.0826 6.49833 22.1002 6.50533L22.2491 6.56484C22.3315 6.59809 22.4016 6.6261 22.4559 6.6471L22.554 6.68735C22.5628 6.69085 22.5698 6.69435 22.5751 6.6961L29.6282 9.52961V0C24.3922 0 19.4945 1.36337 15.2451 3.75234L18.2047 4.94069Z" fill="#00FFFF"/>
<path d="M21.3598 7.0581L20.0105 6.52255L19.1991 9.90036L18.2897 13.5477C21.2406 11.4615 24.7838 10.1611 28.6179 9.96687L21.3633 7.0511C21.3633 7.05285 21.3615 7.05635 21.3598 7.0581Z" fill="#03F7FD"/>
<path d="M41.4802 19.6613C41.0544 19.1678 40.611 18.6882 40.1292 18.2472C38.892 17.1044 37.4691 16.161 35.9323 15.4715C35.7939 15.4102 35.6537 15.3489 35.5135 15.2912C33.8488 14.6051 32.0667 14.2148 30.2688 14.1413L30.2162 14.0888H29.5854V15.1249L29.6274 15.2947V24.0647C32.659 24.0647 35.1245 26.5254 35.1245 29.5497C35.1245 32.574 32.659 35.0347 29.6274 35.0347C26.8219 35.0347 24.5019 32.9258 24.1724 30.2148C24.1724 30.2113 24.1724 30.2095 24.1742 30.2078H14.1841C14.3121 33.2198 15.3109 36.0113 16.9336 38.339C17.072 38.542 17.4172 38.9936 17.4172 38.9936C18.7402 40.693 20.4084 42.1123 22.3185 43.1397C22.9037 43.4722 23.2489 43.5965 23.2489 43.5965C25.7933 44.5171 28.1923 45.1611 30.9329 44.9283C35.0246 44.5818 38.8675 42.5639 41.4977 39.4171C43.2518 37.3187 44.4609 34.6934 44.8955 31.9807C45.0234 31.1774 45.0882 30.3635 45.0882 29.5497C45.0865 25.9479 43.8353 22.3986 41.4802 19.6613Z" fill="#4A71EA"/>
<defs>
<radialGradient id="paint0_radial_1:129" cx="0" cy="0" r="1" gradientUnits="userSpaceOnUse" gradientTransform="translate(29.6276 68.1507) scale(27.7363 1.75604)">
<stop stop-color="#1A1A1A"/>
<stop offset="1" stop-color="#1A1A1A" stop-opacity="0"/>
</radialGradient>
</defs>
</svg>
